%YAML 1.1
%TAG !u! tag:unity3d.com,2011:
--- !u!1045 &1
EditorBuildSettings:
  m_ObjectHideFlags: 0
  serializedVersion: 2
  m_Scenes:
  - enabled: 1
    path: Assets/Scenes/ClassicScene.unity
    guid: bec99dfabf6ddd04da1a2c4935e69c7a
  m_configObjects: {}
